[{
    "customerName": "John Doe",
    "customerId": "#113168",
    "orderList":[
        {
         "date":"",
         "po":"",
         "submitted":false,
         "orderDetails":{
          "totalEaches":"",
          "totalCases":"",
          "prodEntryList":[],
          "quickEntryList":[]
         }
        }
    ]
}
]
